…
#>   Admin2 = col_character(),
#>   Province_State = col_character(),
#>   Country_Region = col_character(),
#>   Last_Update = col_datetime(format = ""),
#>   Lat = col_double(),
#>   Long_ = col_double(),
#>   Confirmed = col_double(),
#>   Deaths = col_double(),
#>   Recovered = col_double(),
#>   Active = col_double(),
#>   Combined_Key = col_character(),
#>   Incidence_Rate = col_double(),
#>   `Case-Fatality_Ratio` = col_double()
#> )
#> # A tibble: 3,958 x 4
#>    Country_Region      Last_Update         Confirmed Deaths
#>    <chr>               <dttm>                  <dbl>  <dbl>
#>  1 Afghanistan         2020-10-27 04:24:45     40937   1518
#>  2 Albania             2020-10-27 04:24:45     19445    480
#>  3 Algeria             2020-10-27 04:24:45     56419   1922
#>  4 Andorra             2020-10-27 04:24:45      4325     72
#>  5 Angola              2020-10-27 04:24:45      9644    270
#>  6 Antigua and Barbuda 2020-10-27 04:24:45       124      3
#>  7 Argentina           2020-10-27 04:24:45   1102301  29301
#>  8 Armenia             2020-10-27 04:24:45     78810   1196
#>  9 Australia           2020-10-27 04:24:45       114      3
#> 10 Australia           2020-10-27 04:24:45      4398     53
#> # ... with 3,948 more rows
```
…
